{
	"info": {
		"_postman_id": "e9fdc965-4e08-4f09-aaf2-46aaff150c51",
		"name": "doc",
		"schema": "https://schema.getpostman.com/json/collection/v2.1.0/collection.json"
	},
	"item": [
		{
			"name": "http://localhost:8080/api/elfo/editar/1",
			"request": {
				"method": "PUT",
				"header": [
					{
						"key": "Content-Type",
						"name": "Content-Type",
						"value": "application/json",
						"type": "text"
					}
				],
				"body": {
					"mode": "raw",
					"raw": "{\r\n\t\"id\": 1,\r\n    \"nome\": \"Legolas\",\r\n    \"experiencia\": 0,\r\n    \"vida\": 100.0,\r\n    \"dano\": 1.0,\r\n    \"inventario\": null,\r\n    \"racaType\": \"ELFO\",\r\n    \"status\": \"RECEM_CRIADO\"\r\n}"
				},
				"url": {
					"raw": "http://localhost:8080/api/elfo/editar/1",
					"protocol": "http",
					"host": [
						"localhost"
					],
					"port": "8080",
					"path": [
						"api",
						"elfo",
						"editar",
						"1"
					]
				}
			},
			"response": []
		},
		{
			"name": "http://localhost:8080/api/elfo/novo",
			"request": {
				"method": "POST",
				"header": [
					{
						"key": "Content-Type",
						"name": "Content-Type",
						"value": "application/json",
						"type": "text"
					}
				],
				"body": {
					"mode": "raw",
					"raw": "{\n\t\"nome\": \"Legolas\",\n\t\"vida\": 100.00,\n\t\"experiencia\": 0,\n\t\"dano\": 1.0\n}"
				},
				"url": {
					"raw": "http://localhost:8080/api/elfo/novo",
					"protocol": "http",
					"host": [
						"localhost"
					],
					"port": "8080",
					"path": [
						"api",
						"elfo",
						"novo"
					]
				}
			},
			"response": []
		},
		{
			"name": "http://localhost:8080/api/elfo/",
			"request": {
				"method": "GET",
				"header": [],
				"url": {
					"raw": "http://localhost:8080/api/elfo/",
					"protocol": "http",
					"host": [
						"localhost"
					],
					"port": "8080",
					"path": [
						"api",
						"elfo",
						""
					]
				}
			},
			"response": []
		},
		{
			"name": "http://localhost:8080/api/inventarioXItem/editar/1",
			"request": {
				"method": "PUT",
				"header": [
					{
						"key": "Content-Type",
						"name": "Content-Type",
						"value": "application/json",
						"type": "text"
					}
				],
				"body": {
					"mode": "raw",
					"raw": "{\r\n    \"id\": 1,\r\n    \"quantidade\": 4,\r\n    \"inventario\": null,\r\n    \"item\": null\r\n}"
				},
				"url": {
					"raw": "http://localhost:8080/api/inventarioXItem/editar/1",
					"protocol": "http",
					"host": [
						"localhost"
					],
					"port": "8080",
					"path": [
						"api",
						"inventarioXItem",
						"editar",
						"1"
					]
				}
			},
			"response": []
		},
		{
			"name": "http://localhost:8080/api/inventarioXItem/novo",
			"request": {
				"method": "POST",
				"header": [
					{
						"key": "Content-Type",
						"name": "Content-Type",
						"value": "application/json",
						"type": "text"
					}
				],
				"body": {
					"mode": "raw",
					"raw": "{\n\t\"quantidade\": 2\n}"
				},
				"url": {
					"raw": "http://localhost:8080/api/inventarioXItem/novo",
					"protocol": "http",
					"host": [
						"localhost"
					],
					"port": "8080",
					"path": [
						"api",
						"inventarioXItem",
						"novo"
					]
				}
			},
			"response": []
		},
		{
			"name": "http://localhost:8080/api/inventarioXItem/",
			"request": {
				"method": "GET",
				"header": [],
				"url": {
					"raw": "http://localhost:8080/api/inventarioXItem/",
					"protocol": "http",
					"host": [
						"localhost"
					],
					"port": "8080",
					"path": [
						"api",
						"inventarioXItem",
						""
					]
				}
			},
			"response": []
		},
		{
			"name": "http://localhost:8080/api/inventario/editar/1",
			"request": {
				"method": "PUT",
				"header": [
					{
						"key": "Content-Type",
						"name": "Content-Type",
						"value": "application/json",
						"type": "text"
					}
				],
				"body": {
					"mode": "raw",
					"raw": "{\r\n    \"id\": 1,\r\n    \"tamanho\": 10,\r\n    \"personagem\": null,\r\n    \"inventarioXItems\": []\r\n}"
				},
				"url": {
					"raw": "http://localhost:8080/api/inventario/editar/1",
					"protocol": "http",
					"host": [
						"localhost"
					],
					"port": "8080",
					"path": [
						"api",
						"inventario",
						"editar",
						"1"
					]
				}
			},
			"response": []
		},
		{
			"name": "http://localhost:8080/api/inventario/novo",
			"request": {
				"method": "POST",
				"header": [
					{
						"key": "Content-Type",
						"name": "Content-Type",
						"value": "application/json",
						"type": "text"
					}
				],
				"body": {
					"mode": "raw",
					"raw": "{\n\t\"tamanho\": 5\n}"
				},
				"url": {
					"raw": "http://localhost:8080/api/inventario/novo",
					"protocol": "http",
					"host": [
						"localhost"
					],
					"port": "8080",
					"path": [
						"api",
						"inventario",
						"novo"
					]
				}
			},
			"response": []
		},
		{
			"name": "http://localhost:8080/api/inventario/",
			"request": {
				"method": "GET",
				"header": [],
				"url": {
					"raw": "http://localhost:8080/api/inventario/",
					"protocol": "http",
					"host": [
						"localhost"
					],
					"port": "8080",
					"path": [
						"api",
						"inventario",
						""
					]
				}
			},
			"response": []
		},
		{
			"name": "http://localhost:8080/api/item/editar/1",
			"request": {
				"method": "PUT",
				"header": [
					{
						"key": "Content-Type",
						"name": "Content-Type",
						"value": "application/json",
						"type": "text"
					}
				],
				"body": {
					"mode": "raw",
					"raw": "{\r\n    \"id\": 1,\r\n    \"descricao\": \"Escudo\",\r\n    \"inventarioXItems\": []\r\n}"
				},
				"url": {
					"raw": "http://localhost:8080/api/item/editar/1",
					"protocol": "http",
					"host": [
						"localhost"
					],
					"port": "8080",
					"path": [
						"api",
						"item",
						"editar",
						"1"
					]
				}
			},
			"response": []
		},
		{
			"name": "http://localhost:8080/api/item/novo",
			"request": {
				"method": "POST",
				"header": [
					{
						"key": "Content-Type",
						"name": "Content-Type",
						"value": "application/json",
						"type": "text"
					}
				],
				"body": {
					"mode": "raw",
					"raw": "{\n\t\"descricao\": \"Espada\"\n}"
				},
				"url": {
					"raw": "http://localhost:8080/api/item/novo",
					"protocol": "http",
					"host": [
						"localhost"
					],
					"port": "8080",
					"path": [
						"api",
						"item",
						"novo"
					]
				}
			},
			"response": []
		},
		{
			"name": "http://localhost:8080/api/item/",
			"request": {
				"method": "GET",
				"header": [],
				"url": {
					"raw": "http://localhost:8080/api/item/",
					"protocol": "http",
					"host": [
						"localhost"
					],
					"port": "8080",
					"path": [
						"api",
						"item",
						""
					]
				}
			},
			"response": []
		},
		{
			"name": "http://localhost:8080/api/dwarf/editar/2",
			"request": {
				"method": "PUT",
				"header": [
					{
						"key": "Content-Type",
						"name": "Content-Type",
						"value": "application/json",
						"type": "text"
					}
				],
				"body": {
					"mode": "raw",
					"raw": "{\r\n    \"id\": 2,\r\n    \"nome\": \"Anãozinho\",\r\n    \"experiencia\": 1,\r\n    \"vida\": 90.0,\r\n    \"dano\": 1.0,\r\n    \"inventario\": null,\r\n    \"racaType\": \"DWARF\",\r\n    \"status\": \"RECEM_CRIADO\"\r\n}"
				},
				"url": {
					"raw": "http://localhost:8080/api/dwarf/editar/2",
					"protocol": "http",
					"host": [
						"localhost"
					],
					"port": "8080",
					"path": [
						"api",
						"dwarf",
						"editar",
						"2"
					]
				}
			},
			"response": []
		},
		{
			"name": "http://localhost:8080/api/dwarf/novo",
			"request": {
				"method": "POST",
				"header": [
					{
						"key": "Content-Type",
						"name": "Content-Type",
						"value": "application/json",
						"type": "text"
					}
				],
				"body": {
					"mode": "raw",
					"raw": "{\r\n    \"nome\": \"Anão\",\r\n    \"experiencia\": 1,\r\n    \"vida\": 90.0,\r\n    \"dano\": 1.0\r\n}"
				},
				"url": {
					"raw": "http://localhost:8080/api/dwarf/novo",
					"protocol": "http",
					"host": [
						"localhost"
					],
					"port": "8080",
					"path": [
						"api",
						"dwarf",
						"novo"
					]
				}
			},
			"response": []
		},
		{
			"name": "http://localhost:8080/api/dwarf/",
			"request": {
				"method": "GET",
				"header": [],
				"url": {
					"raw": "http://localhost:8080/api/dwarf/",
					"protocol": "http",
					"host": [
						"localhost"
					],
					"port": "8080",
					"path": [
						"api",
						"dwarf",
						""
					]
				}
			},
			"response": []
		}
	]
}